<?xml version="1.0" encoding="utf-8"?>
<!-- Generator: Adobe Illustrator 16.0.0, SVG Export Plug-In . SVG Version: 6.00 Build 0)  -->
<svg version="1.2" baseProfile="tiny" id="Layer_1" xmlns="http://www.w3.org/2000/svg" xmlns:xlink="http://www.w3.org/1999/xlink"
	 x="0px" y="0px" width="226.297px" height="215.43px" viewBox="-4.394 0 226.297 215.43" xml:space="preserve">
<g>
	<path d="M53.46,85.227c0.182-0.609,0.742-0.835,1.226-1.033c1.588-0.651,3.087-1.476,4.606-2.263
		c0.215-0.111,0.444-0.191,0.665-0.295c2.094-0.981,4.202-1.931,6.196-3.112c0.345-0.204,0.733-0.333,1.102-0.499
		c0.466-0.21,0.945-0.396,1.389-0.645c0.187-0.104,0.381-0.324,0.427-0.524c0.207-0.915,0.325-1.85,0.546-2.761
		c0.215-0.887,0.521-1.75,0.771-2.628c0.078-0.275,0.11-0.563,0.167-0.869c-0.592-0.23-1.097-0.273-1.6,0.04
		c-0.138,0.086-0.294,0.215-0.434,0.206c-0.87-0.06-1.499,0.403-2.162,0.868c-0.383,0.269-0.88,0.376-1.328,0.55
		c-0.275,0.107-0.555,0.207-0.833,0.302c-0.324,0.11-0.646,0.244-0.979,0.312c-0.438,0.088-0.823,0.221-1.093,0.612
		c-0.178,0.26-0.371,0.638-0.617,0.692c-0.452,0.1-0.964,0.072-1.421-0.033c-0.537-0.124-1.029-0.502-1.565-0.565
		c-1.011-0.122-1.82-0.685-2.717-1.054c-0.482-0.198-0.906-0.499-1.436-0.649c-0.477-0.136-0.852-0.62-1.273-0.946
		c-0.881-0.679-1.764-1.354-2.645-2.034c-0.124-0.095-0.281-0.177-0.356-0.305c-0.345-0.584-0.931-0.87-1.458-1.235
		c-0.834-0.578-1.729-1.094-2.465-1.776c-0.682-0.633-1.183-1.47-1.832-2.14c-0.442-0.457-0.466-1.185-1.12-1.493
		c-0.158-0.075-0.132-0.538-0.196-0.853c0.812-0.88,1.812-1.332,3.01-1.234c2.43,0.199,4.752-0.377,7.094-0.877
		c1.499-0.32,3.021-0.525,4.534-0.782c1.058-0.181,2.154-0.238,3.164-0.569c1.088-0.357,2.097-0.96,3.132-1.472
		c0.187-0.094,0.36-0.243,0.497-0.404c0.228-0.271,0.467-0.413,0.842-0.336c0.158,0.033,0.347-0.071,0.519-0.123
		c0.223-0.066,0.44-0.144,0.737-0.239c0.012-0.125,0.031-0.326,0.05-0.537c0.593-0.269,1.17-0.549,1.508-1.151
		c0.073-0.13,0.225-0.238,0.363-0.309c0.815-0.411,1.634-0.815,2.46-1.206c0.514-0.241,0.951-0.508,0.857-1.188
		c-0.103-0.736,0.395-1.301,0.61-1.943c0.39-1.158,0.563-2.33,0.525-3.549c-0.021-0.717,0.006-1.439,0.064-2.154
		c0.104-1.284,0.259-2.563,0.374-3.848c0.1-1.098,0.161-2.2,0.263-3.297c0.071-0.775,0.191-1.547,0.263-2.322
		c0.062-0.682-0.051-1.411,0.152-2.043c0.399-1.25-0.335-2.353-0.295-3.541c0.006-0.16-0.123-0.343-0.231-0.483
		c-0.406-0.522-0.83-1.033-1.225-1.522c0.158-0.602,0.343-1.146-0.014-1.679c-0.025-0.041-0.034-0.109-0.021-0.156
		c0.274-1.01-0.044-1.97-0.218-2.949c-0.134-0.754,0.168-1.396,0.718-1.919c0.024-0.011,0.048-0.021,0.073-0.031
		c1.107-0.375,2.002,0.273,2.938,0.651c0.333,0.134,0.558,0.104,0.798-0.082c0.512,0.312,0.997,0.635,1.51,0.91
		c0.172,0.092,0.437,0.138,0.612,0.075c0.428-0.153,0.688,0.01,1.01,0.271c0.299,0.244,0.693,0.416,1.073,0.504
		c0.589,0.139,1.12,0.543,1.779,0.399c0.095-0.021,0.266,0.095,0.332,0.192c0.416,0.617,1.087,0.717,1.724,0.916
		c0.558,0.176,1.072,0.535,1.636,0.625c1.125,0.182,2.063,0.834,3.156,1.113c0.755,0.193,1.312,0.898,1.521,1.727
		c0.113,0.446,0.614,1.64,0.89,1.983c0.101,0.125,0.235,0.257,0.258,0.401c0.125,0.777,0.604,1.329,1.125,1.864
		c0.489,0.501,0.749,2.192,0.401,2.727c-0.108,0.166-0.327,0.301-0.522,0.361c-0.785,0.24-1.04,0.812-0.98,1.555
		c0.04,0.501,0.003,0.937-0.335,1.354c-0.206,0.256-0.313,0.568-0.13,0.972c0.167,0.368,0.303,0.773-0.028,1.257
		c-0.256,0.373-0.273,0.967-0.255,1.458c0.038,0.992-0.349,1.828-0.822,2.641c-0.223,0.384-0.369,0.715-0.27,1.202
		c0.097,0.475-0.042,0.993-0.061,1.493c-0.015,0.396-0.003,0.792-0.003,1.165c1.016,0.149,1.913,0.282,2.812,0.415
		c0.025,0.004,0.055,0.015,0.08,0.011c0.766-0.146,1.522-0.215,2.3,0.004c0.158,0.044,0.438-0.181,0.601-0.344
		c0.574-0.578,1.273-0.736,2.059-0.787c1.174-0.077,2.265,0.302,3.062,1.014c0.76,0.677,1.685,1.305,2.065,2.353
		c0.015,0.04,0.085,0.06,0.231,0.155c0.123-0.257,0.26-0.495,0.354-0.749c0.093-0.25,0.145-0.518,0.215-0.776
		c0.069-0.258,0.207-0.418,0.501-0.443c0.175-0.015,0.344-0.109,0.516-0.167c0.484-0.158,0.771-0.457,0.623-1.141
		c0.382,0.107,0.67,0.139,0.907,0.266c0.544,0.291,1.061,0.637,1.593,0.947c0.396,0.23,0.722,0.511,1.031,0.864
		c0.396,0.451,0.947,0.771,1.451,1.121c0.928,0.641,1.869,1.263,2.807,1.889c0.244,0.163,0.515,0.29,0.744,0.468
		c0.612,0.473,1.271,0.906,1.787,1.469c0.254,0.274,0.262,0.797,0.332,1.215c0.068,0.418-0.133,0.704-0.416,1.049
		c-0.4,0.484-0.824,0.965-0.975,1.693c-0.147,0.712-0.745,1.33-1.144,1.992c-0.062,0.106-0.188,0.277-0.153,0.326
		c0.368,0.526-0.143,0.711-0.373,0.99c-0.559,0.676-1.188,1.3-1.687,2.016c-0.624,0.896-1.138,1.868-1.719,2.794
		c-0.242,0.387-0.55,0.73-0.803,1.11c-0.188,0.282-0.414,0.544-0.292,0.96c0.038,0.133-0.198,0.422-0.376,0.53
		c-0.695,0.425-1.11,1.038-1.421,1.832c0.649,0.142,1.214,0.217,1.77-0.089c0.138-0.075,0.363-0.208,0.433-0.158
		c0.655,0.479,1.404-0.021,2.104,0.25c0.642,0.247,1.367,0.278,2.056,0.404c0.131,0.023,0.266,0.08,0.395,0.067
		c0.496-0.052,0.826,0.199,1.062,0.586c0.476,0.782,1.033,1.49,1.691,2.13c0.329,0.32,0.481,0.741,0.495,1.24
		c0.014,0.556,0.141,1.111,0.253,1.66c0.034,0.172,0.159,0.338,0.275,0.479c0.5,0.603,0.525,1.222-0.034,1.748
		c-0.444,0.419-0.958,0.772-1.468,1.115c-0.601,0.403-1.224,0.774-1.85,1.138c-0.41,0.239-0.787,0.521-1.317,0.545
		c-0.539,0.024-0.913,0.414-1.133,0.853c-0.765-0.14-1.479-0.272-2.196-0.4c-0.104-0.019-0.226-0.05-0.315-0.016
		c-0.668,0.254-1.309,0.267-1.933-0.136c-0.101-0.065-0.264-0.062-0.394-0.046c-0.691,0.073-1.336-0.104-1.951-0.385
		c-0.426-0.194-0.8-0.221-1.222,0.034c-0.294,0.178-0.658,0.235-0.979,0.374c-0.29,0.125-0.563,0.286-0.843,0.437
		c-0.095,0.05-0.179,0.154-0.274,0.163c-1.211,0.104-1.428,1.212-1.908,1.986c-0.362,0.583-0.737,1.104-1.273,1.521
		c-0.336,0.262-0.75,0.484-0.961,0.829c-0.377,0.612-0.948,0.739-1.556,0.873c-0.166,0.035-0.317,0.135-0.551,0.237
		c0.193,0.175,0.316,0.283,0.461,0.413c-0.114,0.069-0.177,0.122-0.247,0.146c-0.341,0.112-0.94-0.05-0.694,0.669
		c-0.414,0.312-0.72,0.823-1.352,0.742c-0.076-0.01-0.152-0.022-0.229-0.034c-0.062,0.477-0.018,0.966-0.584,1.201
		c-0.244,0.101-0.128,0.502-0.502,0.649c-0.359,0.143-0.628,0.474-1.089,0.487c-0.173,0.005-0.402,0.271-0.491,0.47
		c-0.196,0.44-0.403,0.74-0.944,0.869c-0.435,0.104-0.817,0.48-1.188,0.781c-0.401,0.325-0.759,0.702-1.187,1.104
		c0.379,0.092,0.731-0.029,1.062-0.132c0.664-0.204,1.313-0.454,1.967-0.689c0.327-0.118,0.646-0.262,0.976-0.367
		c0.225-0.071,0.461-0.102,0.694-0.141c0.156-0.025,0.33-0.001,0.471-0.06c0.643-0.27,1.284-0.538,1.905-0.851
		c0.271-0.137,0.504-0.297,0.828-0.195c0.087,0.026,0.229-0.006,0.3-0.066c0.695-0.597,1.693-0.672,2.34-1.368
		c0.115-0.124,0.407-0.136,0.608-0.114c0.501,0.052,0.831-0.234,0.924-0.624c0.177-0.748,0.8-0.962,1.337-1.264
		c0.237-0.133,0.417-0.259,0.604-0.465c0.28-0.312,0.708-0.49,1.006-0.792c0.755-0.769,1.539-0.89,2.44-0.267
		c0.163,0.113,0.413,0.092,0.619,0.149c0.222,0.062,0.514,0.081,0.641,0.231c0.765,0.902,1.812,1.279,2.881,1.628
		c0.076,0.025,0.171,0.037,0.224,0.089c1.114,1.078,2.739,1.199,3.944,2.104c0.742,0.06,1.18,0.805,1.93,0.857
		c0.084,0.006,0.176,0.116,0.235,0.199c0.326,0.458,0.644,0.923,0.978,1.405c-0.438,1.287-0.166,2.656-0.349,4.007
		c-0.812,0.602-1.681,1.182-2.473,1.854c-0.67,0.569-1.393,1.159-1.835,1.896c-0.602,0.998-1.479,1.587-2.404,2.16
		c-0.221,0.138-0.55,0.098-0.862,0.143c-0.047,0.146-0.054,0.394-0.181,0.519c-0.419,0.408-0.869,0.792-1.337,1.146
		c-0.145,0.108-0.395,0.147-0.576,0.114c-0.311-0.058-0.5,0.041-0.723,0.307c0.233,0.03,0.396,0.051,0.689,0.09
		c-0.367,0.297-0.576,0.494-0.992,0.481c-0.565-0.018-1,0.25-1.219,0.862c-0.124,0.348-0.456,0.621-0.728,0.969
		c0.061,0.104,0.164,0.283,0.281,0.485c-1.097,0.486-1.925,1.242-2.801,1.938c-0.711,0.564-1.474,1.062-2.195,1.576
		c-0.255-0.203-0.35-0.521-0.662-0.291c-0.326,0.24-0.328,0.457,0.055,1.172c-0.328,0.186-0.656,0.369-0.985,0.555
		c-0.034-0.041-0.068-0.082-0.103-0.123c0.15-0.26,0.302-0.521,0.485-0.84c-0.159,0-0.262-0.031-0.3,0.006
		c-0.394,0.377-0.586,0.98-1.242,1.072c-0.08,0.012-0.136,0.215-0.195,0.332c-0.16,0.307-0.276,0.646-0.485,0.912
		c-0.214,0.272-0.204,0.543-0.007,0.727c0.323,0.304,0.327,0.718,0.503,1.062c0.389,0.762,0.839,1.492,1.265,2.233
		c0.093,0.162,0.191,0.322,0.334,0.562c0.288-0.115,0.586-0.211,0.862-0.353c0.627-0.317,1.285-0.567,1.896-0.926
		c0.261-0.149,0.618-0.127,0.891-0.266c0.354-0.18,0.679-0.424,0.995-0.668c0.444-0.344,0.87-0.715,1.306-1.07
		c0.101-0.08,0.206-0.162,0.322-0.215c0.386-0.176,0.802-0.299,1.161-0.518c0.367-0.226,0.687-0.357,1.12-0.162
		c0.34,0.151,0.667,0.11,0.875-0.31c0.142-0.285,0.385-0.571,0.772-0.354c0.281,0.16,0.196,0.623-0.112,0.981
		c-0.222,0.263-0.385,0.57-0.598,0.84c-0.263,0.332-0.547,0.646-0.826,0.966c-0.123,0.141-0.27,0.262-0.381,0.409
		c-0.339,0.451-0.7,0.894-0.988,1.378c-0.212,0.354-0.268,0.811-0.496,1.151c-0.232,0.349-0.66,0.566-0.666,1.062
		c-0.003,0.455-0.189,0.836-0.48,1.172c-0.338,0.391-0.494,0.789-0.309,1.332c0.151,0.44,0.074,0.897-0.312,1.26
		c-0.112,0.104-0.178,0.303-0.189,0.465c-0.052,0.715-0.092,1.375-0.647,1.978c-0.5,0.539-0.705,1.35-1.196,1.899
		c-0.601,0.676-1.079,1.355-1.2,2.267c-0.03,0.229-0.178,0.444-0.197,0.493c0.143,0.597,0.217,1.037,0.359,1.455
		c0.102,0.297,0.296,0.562,0.492,0.916c-0.069,0.455-0.411,0.888-0.802,1.17c-0.897,0.65-0.876,1.539-0.792,2.457
		c0.117,1.275,0.379,2.55,0.376,3.822c-0.002,1.113,0.404,2.248-0.061,3.355c0.189,0.672-0.164,1.299-0.159,1.952
		c0.003,0.478,0.024,0.957,0.097,1.429c0.175,1.158,0.319,2.313,0.231,3.492c-0.026,0.368,0.109,0.745,0.114,1.12
		c0.021,1.525,0,3.052,0.03,4.576c0.037,1.898,0.125,3.795,0.156,5.693c0.015,0.906-0.049,1.813-0.074,2.721
		c-0.01,0.351-0.025,0.697-0.017,1.045c0.011,0.381,0.032,0.75-0.237,1.076c-0.093,0.111-0.186,0.348-0.13,0.435
		c0.229,0.366,0.009,0.692-0.073,1.002c-0.229,0.854-0.61,1.674-0.774,2.539c-0.132,0.69-0.364,1.332-0.609,1.975
		c-0.354,0.928-0.79,1.822-1.142,2.75c-0.351,0.924-0.611,1.885-0.969,2.807c-0.199,0.515-0.515,0.98-0.778,1.472
		c-0.316,0.588-0.805,1.084-0.944,1.766c-0.771,0.525-0.96,1.465-1.518,2.145c-0.218,0.267-0.433,0.562-0.539,0.886
		c-0.382,1.151-1.194,1.975-2.058,2.752c-0.354,0.315-0.591,0.664-0.81,1.08c-0.353,0.668-0.68,1.346-1.295,1.873
		c-0.418,0.358-0.579,1-0.934,1.453c-0.539,0.69-1.124,1.352-1.74,1.973c-0.121,0.123-0.471,0.018-0.735,0.018
		c-0.085,0.097-0.191,0.211-0.339,0.373c-0.097-0.129-0.196-0.219-0.238-0.33c-0.246-0.639-0.274-0.67-0.912-0.551
		c-0.258,0.047-0.518,0.125-0.755,0.234c-0.529,0.24-1.014,0.264-1.497-0.125c-0.313-0.252-0.655-0.482-1.017-0.654
		c-0.359-0.172-0.759-0.354-1.145-0.361c-0.771-0.016-1.408-0.264-1.971-0.771c-0.115-0.104-0.271-0.178-0.419-0.228
		c-0.733-0.243-1.474-0.469-2.206-0.713c-0.149-0.051-0.278-0.16-0.418-0.239c-0.319-0.188-0.664-0.341-0.954-0.564
		c-0.904-0.697-2.038-1.068-2.791-1.977c-0.034-0.041-0.071-0.103-0.115-0.109c-0.592-0.119-0.99-0.607-1.518-0.814
		c-0.642-0.25-1.189-0.604-1.711-1.034c-0.323-0.269-0.489-0.578-0.656-0.968c-0.267-0.616-0.437-1.35-0.989-1.776
		c-0.381-0.293-0.665-0.672-1.015-0.949c-0.321-0.254-0.437-0.59-0.674-0.863c-1.058-1.215-1.92-2.571-2.728-3.961
		c-0.14-0.24-0.132-0.562-0.259-0.813c-0.277-0.547-0.628-1.062-0.891-1.615c-0.153-0.328-0.216-0.705-0.283-1.066
		c-0.088-0.471-0.188-0.944-0.199-1.422c-0.016-0.701-0.318-1.295-0.677-1.879c0.041-0.043,0.082-0.086,0.123-0.129
		c0.462,0.242,0.935,0.463,1.383,0.729c0.994,0.585,0.989,0.595,1.97,0.695c0.239-0.176,0.422-0.414,0.561-0.391
		c0.501,0.084,0.959-0.119,1.421-0.133c0.591-0.021,1.237,0.145,1.776,0.403c1.338,0.646,2.667,1.271,4.172,1.41
		c0.183,0.019,0.353,0.137,0.534,0.18c0.543,0.128,1.061,0.214,1.654,0.109c0.765-0.131,1.577-0.229,2.365-0.012
		c0.052,0.016,0.117,0.063,0.148,0.049c0.741-0.408,1.454,0.152,2.187,0.057c0.434-0.057,0.858-0.096,1.097-0.549
		c0.119-0.227,0.292-0.363,0.591-0.313c0.14,0.022,0.401-0.045,0.436-0.136c0.245-0.659,0.862-1.024,1.21-1.602
		c0.203-0.338,0.488-0.623,0.732-0.938c0.214-0.274,0.464-0.532,0.623-0.838c0.444-0.854,0.854-1.725,1.267-2.596
		c0.065-0.141,0.061-0.312,0.115-0.461c0.121-0.324,0.185-0.715,0.407-0.947c0.435-0.453,0.608-1.002,0.802-1.559
		c0.079-0.229,0.179-0.451,0.274-0.672c0.075-0.174,0.218-0.336,0.232-0.515c0.095-1.104,0.628-2.102,0.801-3.174
		c0.095-0.586,0.398-1.154,0.381-1.688c-0.025-0.726,0.211-1.373,0.262-2.062c0.075-1.031,0.162-2.063,0.217-3.098
		c0.026-0.48-0.068-0.972-0.004-1.441c0.102-0.727-0.166-1.477,0.182-2.188c0.079-0.164-0.021-0.412-0.038-0.613
		c-0.684-0.385-1.067,0.117-1.42,0.463c-0.447,0.441-0.807,0.975-1.185,1.484c-0.208,0.278-0.389,0.582-0.562,0.887
		c-0.255,0.449-0.567,0.809-1.018,1.104c-0.599,0.396-1.298,0.814-1.623,1.406c-0.44,0.803-1.086,1.377-1.672,2.019
		c-1.025,1.123-2.172,2.063-3.778,2.266c-0.606,0.076-1.192,0.32-1.786,0.494c-0.075,0.021-0.18,0.061-0.202,0.121
		c-0.358,0.883-1.438,0.752-1.985,1.422c-0.266,0.322-0.84,0.395-1.273,0.578c-1.016,0.43-2.053,0.813-3.037,1.303
		c-0.62,0.307-1.163,0.771-1.738,1.166c-0.132,0.09-0.246,0.275-0.38,0.289c-0.929,0.092-1.34,0.943-2.036,1.375
		c-0.259,0.16-0.35,0.576-0.547,0.854c-0.146,0.205-0.308,0.474-0.521,0.544c-0.762,0.258-1.234,0.827-1.664,1.366
		c-0.673,0.175-1.318,0.271-1.906,0.511c-1.074,0.436-1.996,0.153-2.896-0.435c-0.404-0.264-0.805-0.539-1.231-0.76
		c-0.348-0.178-0.693-0.322-1.127-0.355c-0.43-0.03-0.837-0.397-1.244-0.635c-0.134-0.078-0.22-0.272-0.355-0.309
		c-0.896-0.24-1.55-0.896-2.332-1.316c-0.807-0.438-1.729-0.66-2.6-0.979c-0.173-0.064-0.346-0.129-0.511-0.211
		c-0.118-0.058-0.223-0.199-0.335-0.203c-1.03-0.043-1.617-0.756-2.294-1.392c-0.346-0.323-0.897-0.422-1.346-0.645
		c-0.307-0.152-0.604-0.328-0.889-0.521c-0.507-0.342-0.976-0.743-1.507-1.037c-0.421-0.231-0.61-0.598-0.789-0.983
		c-0.332-0.717-0.638-1.447-0.986-2.242c0.251-0.443,0.613-0.799,1.292-0.764c0.227,0.012,0.494-0.188,0.691-0.353
		c0.369-0.311,0.708-0.655,1.044-1.002c0.377-0.389,0.588-1.008,1.304-0.901c0.469-0.443,1.042-0.271,1.595-0.31
		c0.571-0.039,1.14-0.211,1.694-0.373c0.822-0.242,1.619-0.58,2.511-0.444c0.137,0.021,0.294-0.093,0.439-0.148
		c0.718-0.287,1.454-0.539,2.148-0.873c0.938-0.453,1.845-0.973,2.767-1.459c0.118-0.062,0.242-0.131,0.371-0.156
		c1.232-0.25,2.309-0.873,3.421-1.416c0.404-0.196,0.858-0.336,1.305-0.393c0.813-0.105,1.369-0.498,1.77-1.205
		c0.128-0.228,0.413-0.385,0.653-0.525c0.6-0.354,1.229-0.655,1.814-1.026c0.235-0.15,0.377-0.441,0.59-0.638
		c0.354-0.319,0.729-0.621,1.103-0.92c0.184-0.146,0.398-0.258,0.57-0.416c0.253-0.231,0.463-0.514,0.723-0.737
		c0.842-0.722,1.539-1.568,2.23-2.431c0.449-0.561,0.997-1.043,1.502-1.559c0.264-0.269,0.572-0.504,0.792-0.805
		c0.604-0.828,1.555-1.101,2.39-1.552c0.59-0.315,1.171-0.604,1.689-1.061c0.577-0.506,1.268-1.066,1.981-1.193
		c1.068-0.19,1.764-0.946,2.677-1.34c0.139-0.059,0.238-0.205,0.367-0.299c0.341-0.25,0.681-0.5,1.031-0.736
		c0.559-0.375,1.017-0.91,1.101-1.521c0.082-0.594,0.383-0.877,0.819-0.914c1.209-0.104,2.021-0.971,3.036-1.439
		c0.396-0.182,0.438-0.524,0.384-0.891c-0.144-0.979-0.289-1.957-0.462-2.93c-0.186-1.05-0.594-1.982-1.341-2.777
		c-0.513-0.545-0.927-1.182-1.395-1.771c-0.375-0.475-0.81-0.571-1.428-0.413c-0.548,0.141-1.155,0.062-1.657,0.401
		c-0.388,0.262-0.755,0.549-1.232,0.9c0.05-0.808,0.709-0.818,1.126-1.222c-0.396-0.43-0.781-0.848-1.172-1.262
		c-0.092-0.096-0.271-0.146-0.307-0.252c-0.335-0.986-1.307-1.309-1.983-1.936c-0.356-0.332-0.725-0.504-1.225-0.287
		c-0.21,0.092-0.477,0.049-0.715,0.08c-0.133,0.018-0.296,0.024-0.387,0.104c-0.72,0.617-1.628,0.795-2.479,1.111
		c-0.285,0.104-0.514,0.379-0.748,0.596c-0.357,0.328-0.691,0.644-1.229,0.707c-0.423,0.051-0.767,0.303-0.989,0.742
		c-0.302,0.594-0.823,0.879-1.521,0.811c-0.475-0.047-0.938-0.062-1.431,0.021c-0.426,0.072-0.908-0.229-1.371-0.338
		c-1.051-0.248-1.857,0.231-2.209,1.276c-0.056,0.164-0.16,0.345-0.296,0.441c-0.41,0.295-0.847,0.555-1.272,0.828
		c-0.09,0.059-0.227,0.092-0.265,0.174c-0.411,0.869-1.229,0.834-2.068,0.906c0.051,0.141,0.091,0.248,0.129,0.352
		c-0.542,0.306-1.085,0.607-1.504,0.842c-0.681,0.234-1.239,0.427-1.791,0.615c-0.246,1.029-0.613,1.342-1.498,1.283
		c-0.067,0.182-0.1,0.398-0.221,0.535c-0.053,0.061-0.288-0.041-0.442-0.066c-0.028,0.041-0.062,0.084-0.088,0.129
		c-0.053,0.093-0.098,0.265-0.154,0.269c-0.729,0.041-0.838,0.912-1.509,1.076c-0.752,0.186-1.376,0.604-1.949,1.186
		c-0.403,0.412-0.842,0.986-1.611,0.928c-0.178-0.014-0.457,0.277-0.562,0.49c-0.441,0.908-0.425,0.916-1.377,0.717
		c-0.276,0.304-0.502,0.734-0.847,0.879c-0.365,0.154-0.845,0.035-1.341,0.035c-0.148,0.293-0.302,0.601-0.459,0.908
		c-0.52,0.281-1.076,0.547-1.594,0.875c-0.51,0.322-1.207,0.385-1.405,0.898c-0.559,0.17-1.004,0.299-1.446,0.438
		c-0.485,0.156-0.563,0.611-0.681,1.008c-0.097,0.324-0.1,0.679-0.145,1.021c-0.435,0.166-0.834,0.291-1.012,0.77
		c-0.064,0.172-0.38,0.279-0.601,0.357c-1.562,0.559-2.894,1.494-4.213,2.469c-0.657,0.486-1.405,0.851-2.098,1.293
		c-0.64,0.41-1.321,0.683-2.047,0.914c-0.657,0.209-1.434,0.351-1.792,1.105c-0.031,0.063-0.116,0.143-0.181,0.146
		c-0.626,0.045-0.812,0.642-1.22,0.939c-0.682,0.498-1.237,1.274-2.29,1.137c-0.354-0.045-0.772,0.199-1.125,0.381
		c-0.678,0.354-1.264,0.867-2.087,0.945c-0.317,0.028-0.689,0.258-0.896,0.51c-0.28,0.344-0.625,0.467-1.001,0.617
		c-0.445,0.176-0.841,0.524-1.296,0.617c-0.996,0.198-1.854,0.696-2.762,1.096c-0.79,0.346-1.6,0.641-2.469,0.697
		c-0.451,0.028-0.907,0-1.359-0.023c-0.428-0.021-0.859-0.035-1.277-0.113c-0.628-0.114-1.301-0.178-1.856-0.457
		c-0.712-0.358-1.409-0.291-2.127-0.233c-0.395,0.031-0.734,0.063-1.153-0.078c-0.724-0.248-1.502-0.092-2.184,0.283
		c-0.585,0.321-1.148,0.387-1.778,0.147c-0.268-0.1-0.581-0.078-0.924-0.117c0.053-0.104,0.07-0.235,0.142-0.276
		c0.693-0.404,1.401-0.785,2.095-1.193c0.271-0.158,0.498-0.393,0.766-0.557c1.211-0.74,2.394-1.529,3.387-2.547
		c0.444-0.457,0.844-0.947,1.343-1.361c0.68-0.562,1.272-1.232,1.943-1.809c0.423-0.365,0.909-0.66,1.386-0.959
		c1.077-0.681,2.011-1.525,2.911-2.418c0.475-0.47,1.009-0.882,1.504-1.33c0.79-0.722,1.548-1.476,2.357-2.168
		c0.856-0.734,1.761-1.41,2.638-2.119c0.226-0.183,0.43-0.392,0.644-0.588c0.118-0.109,0.226-0.234,0.356-0.324
		c1.556-1.051,2.916-2.381,4.625-3.211c0.625-0.303,1.244-0.617,1.864-0.926c0.097-0.05,0.203-0.084,0.287-0.15
		c1.702-1.33,3.723-2.135,5.508-3.322c0.973-0.645,1.895-1.367,2.832-2.063c0.101-0.074,0.144-0.22,0.231-0.312
		c0.308-0.324,0.606-0.662,0.942-0.955c0.332-0.291,0.705-0.537,1.162-0.877c0.614,0.144,1.092-0.44,1.445-0.893
		c0.676-0.863,1.514-1.514,2.347-2.176c1.849-1.476,3.704-2.938,5.587-4.367c2.264-1.719,4.553-3.404,6.848-5.082
		c0.21-0.154,0.536-0.166,0.812-0.207c0.218-0.031,0.441-0.006,0.654-0.006c0-0.486,0-0.854,0-1.095
		c0.282-0.319,0.622-0.532,0.656-0.785c0.057-0.425-0.018-0.898-0.16-1.309c-0.093-0.267-0.138-0.466-0.085-0.751
		c0.103-0.55,0.165-1.118,0.148-1.676c-0.015-0.469,0.155-0.813,0.433-1.148c0.133-0.161,0.24-0.344,0.379-0.545
		c0.079-0.006,0.197-0.047,0.288-0.014c0.566,0.204,1.027-0.024,1.383-0.411c0.691-0.751,1.267-0.691,2.341-0.199
		c0.486,0.225,0.952,0.505,1.398,0.804c0.311,0.206,0.536,0.169,0.782-0.079c0.622-0.627,1.325-1.159,1.886-1.866
		c0.684-0.863,1.507-1.614,2.25-2.433c0.757-0.834,1.473-1.708,2.238-2.535c1.095-1.183,2.22-2.336,3.33-3.506
		c0.177-0.188,0.339-0.389,0.593-0.68c-0.242-0.027-0.343-0.07-0.423-0.045c-0.969,0.317-1.916,0.732-2.906,0.933
		c-0.482,0.098-1.043,0.501-1.57,0.041c-0.019-0.017-0.056-0.033-0.075-0.025c-0.681,0.278-1.476,0.127-2.116,0.565
		c-0.216,0.146-0.445,0.317-0.69,0.364c-0.584,0.11-1.183,0.149-1.774,0.225c-0.186,0.023-0.4,0.024-0.547,0.12
		c-0.354,0.231-0.72,0.143-1.095,0.142c-0.354-0.001-0.708,0.08-1.167,0.138c-0.106-0.078-0.338-0.248-0.611-0.45
		c-0.152,0.263-0.271,0.464-0.386,0.659c-0.301,0.023-0.65-0.047-0.853,0.095c-0.19,0.133-0.225,0.489-0.349,0.801
		c-0.701-0.37-1.16-0.107-1.574,0.575c-0.194,0.318-0.678,0.527-1.072,0.644c-0.44,0.128-0.558,0.403-0.709,0.77
		c-0.197,0.473-0.412,0.89-0.932,1.227c-0.998,0.648-1.84,1.539-2.757,2.317c-0.179,0.151-0.387,0.281-0.601,0.378
		c-0.796,0.361-1.624,0.665-2.145,1.442c-0.098,0.147-0.274,0.265-0.44,0.34c-1.021,0.472-2.073,0.882-3.065,1.405
		c-0.426,0.225-0.764,0.649-1.086,1.03c-0.533,0.632-1.14,1.091-1.973,1.273c-0.834,0.186-1.613,0.629-2.512,0.515
		c-0.074-0.011-0.163,0.022-0.23,0.062c-0.855,0.478-1.745,0.904-2.547,1.458c-0.607,0.42-1.246,0.701-1.918,0.979
		c-0.755,0.311-1.483,0.369-2.266,0.227c-0.287-0.053-0.592-0.043-0.888-0.029c-0.179,0.011-0.435,0.021-0.518,0.134
		c-0.312,0.422-0.731,0.395-1.165,0.381c-0.242-0.01-0.488-0.031-0.728-0.002c-0.934,0.117-1.735-0.125-2.486-0.709
		c-0.261-0.203-0.716-0.234-1.072-0.209c-0.595,0.041-1.01-0.224-1.461-0.549c-0.787-0.572-1.473-1.241-2.124-1.953
		c-0.09-0.1-0.173-0.221-0.286-0.278c-0.577-0.299-0.989-0.723-1.409-1.24c-0.538-0.662-1.371-1.086-2.088-1.597
		c-0.124-0.088-0.304-0.13-0.459-0.135c-0.332-0.01-0.508-0.151-0.696-0.438c-0.174-0.266-0.5-0.511-0.806-0.597
		c-0.741-0.21-1.314-0.587-1.832-1.166c-0.42-0.47-1.008-0.789-1.52-1.177c-0.191-0.146-0.367-0.312-0.567-0.442
		c-0.289-0.185-0.578-0.385-0.896-0.506c-0.638-0.243-1.287-0.454-1.943-1.001c0.604-0.058,0.849-0.396,1.157-0.72
		c0.284-0.3,0.81-0.412,1.25-0.512c0.642-0.145,1.225-0.308,1.694-0.837c0.27-0.303,0.681-0.53,1.158-0.209
		c0.15,0.102,0.469,0.123,0.612,0.03c0.451-0.293,0.89-0.129,1.354-0.135c0.565-0.01,1.146-0.254,1.687-0.478
		c1.964-0.807,3.938-1.556,6.063-1.842c0.982-0.132,1.945-0.399,2.923-0.577c2.142-0.39,4.293-0.716,6.424-1.157
		c1.426-0.295,2.731-0.941,3.911-1.804c1.235-0.902,2.652-1.265,4.126-1.479c0.518-0.076,1.058-0.345,1.552,0.199
		c0.354-0.639,0.896-0.747,1.523-0.74c0.299,0.003,0.613-0.127,0.897-0.25c0.331-0.145,1.848-0.392,2.275-0.271
		c0.403,0.112,0.802,0.091,1.059-0.199c0.489-0.55,1.09-0.403,1.643-0.312c0.906,0.15,1.038,0.156,1.632-0.491
		c0.584,0.151,1.172,0.302,1.793,0.461c0.257-0.438,0.555-0.779,1.104-0.48c0.038,0.021,0.124,0.01,0.155-0.021
		c0.441-0.425,0.878-0.856,1.315-1.286c-0.031-0.049-0.062-0.099-0.092-0.147c-0.173,0.018-0.346,0.033-0.519,0.051L53.46,85.227z
		 M100.144,58.3c-0.045-0.038-0.091-0.075-0.137-0.113c-0.168,0.104-0.331,0.218-0.505,0.312c-0.186,0.1-0.371,0.235-0.569,0.262
		c-0.723,0.098-1.354,0.616-2.132,0.452c-0.023-0.005-0.052,0.012-0.077,0.021c-0.375,0.154-0.736,0.286-1.153,0.069
		c-0.136-0.071-0.381-0.009-0.544,0.064c-0.486,0.22-0.97,0.457-1.433,0.724c-0.637,0.368-1.436,0.415-1.965,0.994
		c-1.065,0.212-1.667,0.957-2.15,1.851c-0.178,0.328-0.403,0.629-0.605,0.944c-0.057,0.087-0.151,0.182-0.147,0.269
		c0.044,0.901-0.531,1.579-0.908,2.295c-0.502,0.955-0.888,1.88-0.691,2.976c0.025,0.146,0.004,0.323-0.055,0.46
		c-0.292,0.695-0.224,1.409-0.152,2.129c0.056,0.572,0.188,0.671,0.774,0.618c0.853-0.076,1.707-0.108,2.558-0.193
		c0.217-0.021,0.485-0.118,0.62-0.273c0.429-0.507,0.778-1.078,1.207-1.584c0.788-0.932,1.199-2.163,2.282-2.86
		c0.074-0.048,0.079-0.194,0.134-0.284c0.697-1.162,1.395-2.324,2.102-3.48c0.5-0.818,1.006-1.634,1.522-2.441
		c0.474-0.742,0.971-1.469,1.445-2.21C99.771,58.975,99.951,58.634,100.144,58.3z M77.621,111.637
		c0.054,0.018,0.115,0.062,0.15,0.047c0.818-0.35,1.629-0.721,2.558-0.633c0.074,0.008,0.168-0.021,0.229-0.066
		c0.446-0.317,0.918-0.243,1.395-0.098c0.358,0.109,0.709,0.256,1.073,0.338c0.915,0.205,1.87,0.527,2.617-0.369
		c0.739-0.889,1.47-1.789,2.147-2.725c0.299-0.414,0.538-0.799,1.124-0.612c0.085-0.29,0.23-0.527,0.205-0.747
		c-0.082-0.685,0.377-1.021,0.797-1.396c0.298-0.268,0.606-0.522,0.886-0.809c0.812-0.833,1.353-1.857,1.968-2.83
		c0.059-0.092,0.038-0.232,0.073-0.495c-0.648,0.479-1.476,0.374-1.79,1.159c-0.046,0.117-0.267,0.157-0.391,0.253
		c-0.122,0.097-0.255,0.199-0.33,0.33c-0.271,0.475-0.515,0.964-0.78,1.439c-0.064,0.115-0.157,0.228-0.264,0.303
		c-0.573,0.4-1.143,0.811-1.736,1.176c-0.82,0.507-1.688,0.938-2.483,1.479c-0.355,0.242-0.651,0.323-1.039,0.191
		c-0.434-0.149-0.802-0.007-1.227,0.154c-0.97,0.366-1.786,0.985-2.675,1.478C79.087,109.783,78.076,110.434,77.621,111.637z
		 M61.403,178.555c0.156-0.529,0.062-0.693-0.54-0.947C61.005,178.162,61.005,178.162,61.403,178.555z M89.1,92.414
		c0.133-0.145,0.267-0.287,0.397-0.431C89.21,91.964,88.921,91.926,89.1,92.414z M62.117,179.237
		c0.028,0.394,0.157,0.566,0.517,0.601C62.671,179.453,62.586,179.242,62.117,179.237z M55.061,84.677
		c0.043,0.048,0.087,0.096,0.131,0.144c0.085-0.067,0.171-0.137,0.257-0.205c-0.044-0.054-0.087-0.107-0.131-0.16
		C55.232,84.529,55.147,84.603,55.061,84.677z M33.395,124.446c0.078-0.088,0.135-0.131,0.161-0.188
		c0.012-0.027-0.034-0.082-0.053-0.125c-0.058,0.027-0.143,0.041-0.161,0.084C33.321,124.262,33.365,124.336,33.395,124.446z"/>
	<path d="M123.762,180.905c-0.235-0.131-0.401-0.219-0.563-0.312c-0.233-0.133-0.508-0.176-0.661,0.045
		c-0.139,0.197-0.255,0.51-0.193,0.715c0.067,0.219,0.198,0.435-0.022,0.551c-0.131,0.07-0.377-0.047-0.561-0.11
		c-0.142-0.049-0.279-0.229-0.396-0.209c-1.168,0.184-2.381,0.021-3.513,0.459c-0.101,0.039-0.213,0.059-0.301,0.115
		c-0.828,0.53-1.797,0.483-2.707,0.676c-0.416,0.086-0.826,0.201-1.231,0.326c-0.403,0.127-0.802,0.274-1.193,0.432
		c-0.197,0.078-0.383,0.189-0.569,0.291c-0.117,0.062-0.22,0.17-0.343,0.201c-0.697,0.178-1.401,0.326-2.096,0.512
		c-0.335,0.09-0.648,0.254-0.98,0.354c-0.276,0.082-0.563,0.139-0.851,0.168c-0.48,0.051-0.967,0.059-1.446,0.106
		c-0.309,0.031-0.514-0.104-0.697-0.32c-0.6-0.706-1.366-0.899-2.254-0.743c-0.434,0.075-0.437,0.061-0.892-0.289
		c0.312-0.174,0.603-0.334,0.903-0.502c-0.058-0.111-0.078-0.224-0.132-0.242c-0.77-0.273-1.526-0.66-2.32-0.765
		c-0.8-0.104-1.637,0.078-2.456,0.132c-0.155,0.01-0.358,0.065-0.458-0.009c-0.491-0.368-1.009-0.319-1.545-0.17
		c-0.251,0.07-0.501,0.146-0.924,0.269c0.193-0.232,0.262-0.365,0.369-0.438c0.851-0.562,1.708-1.114,2.563-1.67
		c1.596-1.033,3.185-2.078,4.793-3.094c0.749-0.473,1.535-0.887,2.303-1.33c1.181-0.682,2.357-1.371,3.541-2.049
		c0.561-0.32,1.124-0.631,1.697-0.926c0.752-0.388,1.388-0.941,2.086-1.404c0.261-0.172,0.54-0.34,0.835-0.432
		c0.859-0.267,1.597-0.688,2.307-1.265c0.859-0.694,1.604-1.479,2.335-2.289c0.071-0.08,0.164-0.188,0.253-0.194
		c0.779-0.058,1.234-0.726,1.901-1.007c0.445-0.188,0.804-0.59,1.195-0.901c0.813-0.65,1.749-1.17,2.289-2.119
		c0.037-0.064,0.114-0.139,0.184-0.148c0.418-0.067,0.659-0.305,0.932-0.641c0.359-0.439,0.925-0.705,1.371-1.08
		c0.676-0.565,1.353-1.133,1.978-1.752c0.529-0.525,0.94-1.174,1.488-1.68c1.188-1.097,2.109-2.416,3.161-3.627
		c0.528-0.607,1.005-1.265,1.48-1.916c0.456-0.625,0.833-1.312,1.333-1.898c0.471-0.549,0.434-1.125,0.327-1.744
		c-0.061-0.344-0.137-0.684-0.203-1.022c-0.021-0.105-0.001-0.254-0.064-0.312c-0.481-0.418-0.599-1.096-1.159-1.494
		c-0.434-0.307-0.718-0.838-1.034-1.295c-0.439-0.629-1.083-1.149-1.109-2.014c-0.003-0.086-0.1-0.201-0.184-0.248
		c-0.676-0.387-0.774-1.16-1.275-1.762c-0.915,0.225-0.841-0.717-1.173-1.215c-0.332-0.496-0.583-1.045-0.894-1.558
		c-0.325-0.541-0.668-1.071-1.024-1.594c-0.707-1.033-1.196-2.188-1.896-3.234c-0.602-0.899-1.42-1.438-2.222-2.043
		c-1.033-0.778-1.981-1.641-2.776-2.666c-0.774-1-1.729-1.746-2.977-2.069c-0.414-0.107-0.825-0.229-1.235-0.349
		c-0.076-0.022-0.172-0.043-0.217-0.1c-0.764-0.949-1.862-1.187-2.968-1.432c-0.598-0.134-1.175-0.343-1.768-0.496
		c-0.14-0.035-0.376-0.045-0.44,0.035c-0.285,0.352-0.723,0.735-0.733,1.118c-0.018,0.552-0.362,0.738-0.648,1.021
		c-0.221,0.219-0.481,0.395-0.738,0.602c-0.225-0.114-0.469-0.25-0.722-0.364c-0.388-0.179-0.416,0.307-0.784,0.53
		c-0.021-0.383-0.084-0.635-0.038-0.864c0.104-0.521,0.26-1.029,0.404-1.539c0.034-0.125,0.077-0.306,0.17-0.349
		c0.456-0.217,0.478-0.576,0.443-1.012c-0.02-0.258,0.062-0.535,0.148-0.785c0.341-0.983,0.658-1.979,1.064-2.936
		c0.506-1.185,1.082-2.336,1.645-3.494c0.665-1.371,1.447-2.693,1.646-4.244c0.015-0.105,0.028-0.221,0.079-0.312
		c0.578-1.01,0.679-2.188,1.137-3.237c0.043-0.099,0.049-0.222,0.11-0.302c0.572-0.741,0.778-1.648,1.126-2.49
		c0.151-0.363,0.248-0.75,0.357-1.13c0.238-0.825,0.446-1.66,0.708-2.479c0.351-1.093,0.804-2.155,0.95-3.306
		c0.531-0.628,0.164-1.605,0.86-2.185c0.144-0.117,0.151-0.392,0.229-0.592c0.354-0.924,0.691-1.855,1.077-2.768
		c0.285-0.681,0.461-1.41,0.923-2.019c0.131-0.173,0.131-0.456,0.161-0.691c0.113-0.896,0.34-1.746,0.69-2.595
		c0.366-0.884,0.472-1.87,0.746-2.797c0.413-1.389,0.938-2.747,1.289-4.148c0.188-0.745,0.499-1.446,0.647-2.196
		c0.254-1.292,0.556-2.578,0.722-3.88c0.111-0.875,0.491-1.684,0.569-2.539c0.086-0.946,0.437-1.8,0.674-2.691
		c0.08-0.296,0.266-0.562,0.401-0.844c0.013-0.023,0.045-0.043,0.047-0.064c0.029-0.989,1.011-1.575,1.082-2.557
		c0.016-0.192,0.186-0.38,0.296-0.562c0.434-0.707,0.672-1.454,0.609-2.303c-0.025-0.36,0.096-0.733,0.169-1.097
		c0.106-0.521,0.302-1.015,0.234-1.583c-0.045-0.376,0.143-0.779,0.225-1.172c0.081-0.392,0.163-0.783,0.237-1.176
		c0.231-1.231,0.46-2.463,0.69-3.695c0.006-0.025,0.023-0.051,0.022-0.076c-0.035-1.346,0.496-2.612,0.514-3.962
		c0.012-0.819,0.287-1.634,0.387-2.458c0.078-0.659,0.048-1.331,0.103-1.994c0.058-0.718,0.119-1.438,0.245-2.146
		c0.194-1.093-0.009-2.154-0.331-3.165c-0.136-0.423-0.386-0.862-0.606-1.276c-0.233-0.436-0.347-0.822-0.203-1.298
		c0.053-0.173,0.051-0.381,0.012-0.56c-0.213-0.97-0.056-1.99-0.424-2.937c-0.029-0.074-0.058-0.165-0.039-0.235
		c0.227-0.886-0.012-1.643-0.594-2.323c-0.07-0.083-0.071-0.255-0.054-0.379c0.099-0.662,0.043-1.229-0.582-1.677
		c-0.264-0.189-0.352-0.623-0.553-1.01c0.317,0,0.615,0,1.022,0c-0.021-0.325-0.031-0.628-0.061-0.931
		c-0.046-0.474-0.151-0.949-0.139-1.42c0.008-0.274,0.145-0.589,0.322-0.803c0.361-0.438,0.612-0.865,0.37-1.447
		c-0.021-0.047,0.063-0.137,0.117-0.241c0.43,0.076,0.879,0.303,1.284-0.083c0.043-0.041,0.237-0.001,0.294,0.062
		c0.354,0.397,0.907,0.535,1.195,1.055c0.194,0.352,0.604,0.606,0.958,0.843c0.673,0.447,1.257,1.067,2.163,1.088
		c0.257,0.005,0.441,0.022,0.651-0.165c0.354-0.313,0.877-0.354,1.243-0.069c0.693,0.539,1.468,0.993,1.937,1.782
		c0.079,0.134,0.197,0.286,0.334,0.336c0.826,0.311,1.26,1.076,1.906,1.59c0.671,0.531,1.369,1.026,2.049,1.548
		c0.141,0.107,0.241,0.268,0.367,0.396c0.242,0.247,0.465,0.523,0.737,0.729c0.662,0.493,1.405,0.891,2.012,1.441
		c0.582,0.53,0.902,1.244,0.662,2.099c0.729,0.696,0.771,1.558,0.552,2.476c-0.02,0.079-0.06,0.173-0.033,0.237
		c0.226,0.55,0.007,1.109,0.059,1.65c0.041,0.428,0.07,0.775-0.213,1.124c-0.094,0.114-0.109,0.303-0.133,0.46
		c-0.146,1.001-0.607,1.854-1.103,2.729c-0.677,1.199-1.336,2.429-1.668,3.79c-0.018,0.075-0.051,0.167-0.024,0.229
		c0.298,0.728-0.011,1.47,0.067,2.205c0.182,1.693-0.351,3.342-0.38,5.026c-0.013,0.742-0.143,1.482-0.233,2.221
		c-0.019,0.146-0.1,0.284-0.162,0.42c-0.033,0.071-0.146,0.167-0.132,0.188c0.329,0.479-0.07,0.999,0.059,1.438
		c0.204,0.689,0.12,1.334-0.058,1.977c-0.097,0.347-0.136,0.656-0.077,1.016c0.151,0.931,0.129,1.861-0.201,2.763
		c-0.018,0.05-0.056,0.112-0.04,0.15c0.235,0.566-0.111,0.906-0.465,1.257c-0.24,0.239-0.321,0.562-0.041,0.784
		c0.536,0.422,0.462,0.989,0.437,1.536c-0.02,0.427-0.059,0.876-0.211,1.269c-0.218,0.562-0.155,1.044,0.132,1.406
		c-0.088,0.438-0.2,0.77-0.21,1.103c-0.022,0.828,0.014,1.659,0,2.489c-0.002,0.174-0.076,0.367-0.172,0.518
		c-0.521,0.815-1.061,1.619-1.588,2.431c-0.085,0.132-0.171,0.279-0.203,0.43c-0.1,0.479-0.25,0.889-0.693,1.193
		c-0.202,0.139-0.273,0.503-0.352,0.78c-0.11,0.402-0.285,0.715-0.635,0.986c-0.271,0.211-0.535,0.589-0.57,0.916
		c-0.098,0.915-0.498,1.69-0.91,2.475c-0.25,0.477-0.467,0.975-0.756,1.427c-0.164,0.257-0.448,0.435-0.669,0.658
		c-0.122,0.124-0.335,0.304-0.307,0.398c0.052,0.176,0.241,0.42,0.393,0.437c1.126,0.113,2.271,0.215,3.374-0.071
		c1.269-0.328,2.513-0.75,3.753-1.17c0.29-0.098,0.597-0.309,0.771-0.555c0.352-0.493,0.765-0.837,1.319-1.104
		c0.492-0.235,0.896-0.668,1.326-1.025c0.226-0.188,0.425-0.403,0.639-0.603c0.299-0.275,0.604-0.54,0.532-1.017
		c-0.046-0.301,0.097-0.5,0.378-0.641c0.505-0.251,0.976-0.58,1.492-0.797c1.487-0.625,2.851-1.527,4.432-1.951
		c0.54-0.145,1.044-0.418,1.548-0.626c0.532,0.379,0.512,0.369,0.733-0.124c0.078-0.173,0.264-0.328,0.437-0.424
		c0.982-0.537,1.978-1.048,2.962-1.58c0.211-0.113,0.476-0.237,0.575-0.431c0.371-0.715,1.071-0.743,1.714-0.933
		c0.763-0.227,1.581-0.409,1.799-1.33c0.241-0.049,0.466-0.054,0.651-0.141c0.876-0.409,1.813-0.439,2.752-0.487
		c0.188-0.01,0.397,0.021,0.559-0.053c0.494-0.228,0.984-0.167,1.492-0.087c0.537,0.085,1.062,0.123,1.41-0.456
		c0.213-0.352,0.6-0.412,0.991-0.447c0.425-0.04,0.851-0.093,1.146-0.488c0.095-0.127,0.316-0.161,0.48-0.234
		c0.168-0.075,0.374-0.107,0.499-0.228c0.372-0.354,0.74-0.629,1.279-0.341c0.058,0.03,0.179,0.013,0.229-0.03
		c0.403-0.33,0.835-0.196,1.298-0.179c1.206,0.045,2.023,0.66,2.695,1.565c0.63,0.849,1.55,1.328,2.409,1.875
		c0.266,0.169,0.482,0.313,0.578,0.613c0.032,0.102,0.043,0.253,0.114,0.295c0.775,0.455,1.29,1.278,2.191,1.554
		c0.121,0.038,0.305,0.087,0.335,0.174c0.14,0.404,0.525,0.511,0.802,0.753c0.372,0.327,0.8,0.565,1.058,1.069
		c0.193,0.38,0.734,0.588,1.134,0.855c0.219,0.146,0.449,0.288,0.695,0.376c0.297,0.105,0.56,0.202,0.533,0.587
		c-0.003,0.045,0.035,0.119,0.074,0.138c0.775,0.365,0.66,1.17,0.867,1.806c0.062,0.189,0,0.513-0.133,0.654
		c-0.399,0.43-0.862,0.802-1.303,1.194c-0.04,0.036-0.098,0.053-0.132,0.092c-0.916,1.032-2.289,1.149-3.44,1.705
		c-0.226,0.108-0.525,0.062-0.792,0.076c-1.018,0.048-2.053-0.042-3.004,0.445c-0.119,0.062-0.313,0.09-0.352,0.182
		c-0.295,0.733-1.016,0.58-1.562,0.75c-0.917,0.287-1.857,0.502-2.791,0.737c-0.468,0.117-0.94,0.209-1.407,0.323
		c-0.599,0.146-1.191,0.307-1.787,0.456c-0.415,0.104-0.832,0.197-1.246,0.304c-0.884,0.227-1.766,0.462-2.649,0.689
		c-0.378,0.097-0.777,0.134-1.133,0.282c-0.907,0.376-1.794,0.805-2.691,1.201c-0.345,0.15-0.691,0.327-1.055,0.39
		c-0.564,0.098-1.07,0.233-1.468,0.696c-0.159,0.187-0.441,0.27-0.664,0.397c-0.408-0.635-0.601-0.713-1.17-0.337
		c-0.438,0.289-0.881,0.626-1.191,1.04c-0.539,0.719-1.299,1.268-1.652,2.129c-0.328,0.799-1.104,0.976-1.799,1.243
		c-0.397,0.153-0.825,0.228-1.3,0.353c0.008,0.121,0.024,0.271,0.021,0.418c-0.007,0.25-0.128,0.39-0.392,0.42
		c-0.346,0.04-0.688,0.106-1.104,0.175c0.248,0.368,0.429,0.667,0.829,0.79c0.191,0.059,0.354,0.228,0.519,0.359
		c0.767,0.613,1.463,1.322,2.391,1.714c0.072,0.03,0.162,0.067,0.201,0.13c0.633,0.983,1.55,1.791,1.816,3.005
		c0.199,0.905-0.135,1.674-0.524,2.438c-0.41,0.807-0.877,1.587-1.216,2.423c-0.139,0.343,0.008,0.796,0,1.197
		c-0.003,0.234-0.057,0.467-0.075,0.703c-0.025,0.285-0.025,0.574-0.061,0.857c-0.082,0.684-0.173,1.366-0.271,2.049
		c-0.026,0.184-0.173,0.387-0.126,0.537c0.216,0.684-0.073,1.266-0.335,1.834c0.561,0.635,0.589,0.651,0.147,1.319
		c-0.308,0.468-0.206,0.854,0.093,1.308c-0.39,0.352-0.396,0.832-0.268,1.295c0.086,0.313,0.081,0.563-0.075,0.846
		c-0.102,0.185-0.159,0.406-0.184,0.617c-0.153,1.332-0.308,2.662-0.425,3.998c-0.021,0.252,0.111,0.518,0.188,0.832
		c-0.127,0.19-0.3,0.428-0.441,0.682c-0.072,0.129-0.133,0.293-0.125,0.438c0.034,0.598,0.07,1.18-0.395,1.672
		c-0.08,0.084-0.051,0.373,0.034,0.494c0.248,0.356,0.351,0.682,0.183,1.125c-0.081,0.213,0.055,0.512,0.104,0.77
		c0.021,0.123,0.128,0.258,0.098,0.359c-0.182,0.625-0.399,1.24-0.588,1.861c-0.095,0.313-0.266,0.579,0.013,0.967
		c0.18,0.248,0.044,0.733,0.019,1.11c-0.017,0.209-0.1,0.412-0.162,0.666c1.067,0.394,0.265,1.123,0.348,1.775
		c0.79,0.373,0.468,1.084,0.417,1.771c-0.597,0.193-0.617,0.687-0.547,1.257c0.693,0.034,1.16,0.352,1.19,1.08
		c0.947,0.454,1.354,0.856,1.938,1.76c0.168,0.26,0.453,0.449,0.698,0.655c0.569,0.479,1.32,0.724,1.773,1.355
		c0.604-0.023,0.809,0.613,1.31,0.797c0.298,0.107,0.483,0.484,0.767,0.674c0.775,0.517,1.577,0.994,2.363,1.496
		c0.222,0.142,0.421,0.316,0.639,0.463c0.195,0.131,0.392,0.285,0.608,0.353c0.237,0.072,0.435,0.106,0.563,0.377
		c0.074,0.154,0.331,0.291,0.521,0.312c0.807,0.093,1.436,0.558,2.109,0.933c0.141,0.08,0.284,0.174,0.438,0.203
		c0.557,0.104,0.974,0.368,1.29,0.854c0.131,0.201,0.429,0.291,0.647,0.439c0.194,0.133,0.388,0.271,0.575,0.414
		c0.189,0.145,0.368,0.303,0.562,0.442c0.085,0.064,0.246,0.074,0.276,0.148c0.282,0.668,0.988,0.891,1.43,1.395
		c0.606,0.697,1.337,1.242,2.261,1.476c0.148,0.036,0.279,0.149,0.414,0.231c0.115,0.07,0.23,0.144,0.335,0.226
		c0.452,0.356,1.047,0.252,1.519,0.454c0.488,0.214,0.91,0.505,1.485,0.529c0.466,0.021,0.936,0.189,1.381,0.353
		c0.65,0.235,1.271,0.559,1.925,0.782c0.451,0.154,0.935,0.236,1.408,0.3c0.492,0.063,0.953,0.118,1.232,0.623
		c0.074,0.135,0.299,0.223,0.471,0.262c0.939,0.201,1.74,0.69,2.54,1.186c0.11,0.07,0.231,0.168,0.352,0.172
		c1.151,0.033,2.038,0.759,3.049,1.158c0.148,0.06,0.297,0.156,0.448,0.168c1.375,0.105,2.546,0.877,3.861,1.179
		c0.347,0.079,0.654,0.321,0.999,0.418c1.026,0.286,2.112,0.327,3.087,0.829c0.562,0.289,1.161,0.507,1.754,0.73
		c0.223,0.084,0.47,0.102,0.706,0.139c0.452,0.068,0.923,0.08,1.256,0.47c0.034,0.041,0.088,0.096,0.128,0.092
		c0.641-0.056,1.074,0.444,1.623,0.586c0.369,0.096,0.601,0.289,0.879,0.488c0.271,0.194,0.609,0.299,0.923,0.428
		c0.096,0.041,0.271,0.002,0.305,0.061c0.384,0.666,1.101,0.523,1.672,0.746c0.697,0.271,1.443,0.513,1.945,1.16
		c0.129,0.164,0.418,0.205,0.673,0.32c0,0.188,0,0.393,0,0.496c0.383,0.319,0.68,0.606,1.017,0.836
		c0.213,0.146,0.482,0.211,0.73,0.301c0.33,0.119,0.589,0.221,0.701,0.66c0.103,0.403,0.421,0.752,0.909,0.93
		c0.486,0.176,0.924,0.473,1.469,0.273c0.389,0.973,1.436,1.098,2.155,1.803c-0.328,0.301-0.599,0.639-0.945,0.846
		c-0.453,0.271-0.966,0.439-1.458,0.64c-0.147,0.061-0.34,0.147-0.466,0.1c-0.849-0.322-1.514,0.297-2.273,0.406
		c-0.053,0.008-0.104,0.03-0.156,0.043c-0.632,0.139-1.266,0.121-1.816,0.664c-0.451,0.444-1.171,0.616-1.775,0.903
		c-0.116,0.056-0.246,0.115-0.371,0.119c-0.793,0.031-1.497,0.363-2.222,0.629c-0.175,0.064-0.365,0.086-0.547,0.129
		c-0.804,0.195-1.611,0.371-2.408,0.591c-0.825,0.227-1.626,0.573-2.463,0.715c-0.557,0.094-1.156-0.092-1.737-0.135
		c-0.256-0.019-0.517-0.003-0.773,0.014c-0.419,0.024-0.839,0.07-1.258,0.098c-0.268,0.017-0.55-0.039-0.801,0.025
		c-0.722,0.19-1.427,0.44-2.146,0.635c-0.25,0.068-0.535,0.086-0.789,0.041c-0.482-0.084-0.94-0.125-1.408,0.092
		c-0.178,0.08-0.415,0.029-0.624,0.047c-0.556,0.05-1.111,0.111-1.668,0.148c-0.233,0.016-0.477,0.02-0.701-0.027
		c-0.341-0.069-0.67-0.19-1.007-0.28c-0.1-0.027-0.239-0.068-0.31-0.021c-0.799,0.516-1.663,0.291-2.514,0.246
		c-0.054-0.004-0.118-0.021-0.16,0.002c-0.856,0.451-1.771,0.045-2.653,0.174c-0.405,0.06-0.635,0.318-0.827,0.58
		c-0.394,0.535-0.921,0.771-1.533,0.744c-0.681-0.029-1.414,0.08-1.983-0.478c-0.081-0.077-0.274-0.135-0.365-0.092
		c-0.595,0.279-1.184,0.148-1.799,0.123c-0.365-0.014-0.734,0.041-1.033-0.166c-0.335-0.233-0.614-0.477-1.081-0.371
		c-0.144,0.031-0.396-0.168-0.513-0.326c-0.42-0.561-1.028-0.85-1.604-1.188c-0.047-0.027-0.104-0.088-0.138-0.076
		c-1.066,0.324-1.125-0.803-1.7-1.184c-0.237-0.156-0.436-0.375-0.648-0.568c-0.276-0.246-0.554-0.496-0.83-0.746
		c-0.614-0.555-1.239-1.1-1.844-1.666c-0.666-0.623-1.563-0.955-2.124-1.709c-0.047-0.063-0.101-0.143-0.17-0.17
		c-1.25-0.5-2.024-1.645-3.155-2.326c-0.563-0.342-1.042-0.813-1.723-0.959c-0.123-0.026-0.254-0.119-0.334-0.219
		c-0.582-0.721-1.314-1.158-2.237-1.293c-0.141-0.021-0.294-0.15-0.386-0.271c-0.22-0.282-0.499-0.325-0.834-0.391
		c-0.423-0.082-0.795-0.42-1.219-0.514c-0.661-0.146-1.172-0.529-1.64-0.945c-0.596-0.527-1.099-1.16-1.639-1.752
		c-0.092-0.098-0.156-0.227-0.26-0.309c-0.631-0.5-1.17-1.031-1.467-1.841c-0.159-0.434-0.65-0.791-1.064-1.073
		c-1.032-0.707-1.537-1.773-2.027-2.845c-0.153-0.338-0.299-0.557-0.657-0.723c-0.552-0.254-1.052-0.625-1.561-0.967
		c-0.667-0.447-1.604-0.049-1.788,0.762c-0.047,0.209-0.095,0.441-0.221,0.604c-0.674,0.864-0.918,2.039-2.021,2.616
		c-0.325,0.173-0.489,0.677-1.076,0.552c0.021,0.282,0.006,0.496,0.06,0.69c0.154,0.554,0.09,0.715-0.433,0.859
		c-0.176,0.047-0.364,0.041-0.605,0.063c0.059,0.205,0.105,0.369,0.15,0.525c-0.322,0.531-0.864,0.473-1.384,0.514
		c-0.069,0.123-0.153,0.23-0.196,0.354c-0.174,0.485-0.492,0.764-1.025,0.748c-0.337-0.01-0.556,0.149-0.694,0.44
		c0.126,0.394,0.461,0.293,0.777,0.345c-0.212,0.674-0.577,1.186-1.205,1.51c-0.159,0.084-0.297,0.227-0.417,0.365
		c-0.373,0.434-0.521,1.069-1.155,1.266c-0.251,0.777-0.933,1.219-1.427,1.805c-0.309,0.367-0.613,0.771-1.007,1.025
		c-0.917,0.596-1.887,1.113-2.834,1.662c-0.918-0.146-1.309,0.858-2.118,0.971c-0.383,0.053-0.806,0.062-1.02,0.51
		c-0.133,0.277-0.325,0.527-0.531,0.855C126.605,180.231,125.056,180.026,123.762,180.905z M145.637,128.569c-0.033,0-0.066,0-0.1,0
		c0.115-0.268,0.298-0.528,0.338-0.809c0.188-1.332,0.417-2.666,0.483-4.008c0.075-1.508,0.318-2.986,0.536-4.471
		c0.242-1.646,0.612-3.285,0.672-4.938c0.051-1.377,0.543-2.658,0.57-4.031c0.021-1.037,0.307-2.065,0.432-3.102
		c0.023-0.197-0.099-0.516-0.255-0.611c-0.399-0.246-0.744-0.479-0.852-0.984c-0.025-0.12-0.282-0.214-0.449-0.276
		c-0.509-0.193-0.612-0.288-0.499-0.813c0.116-0.534,0.019-0.987-0.394-1.313c-0.524-0.417-0.669-1.013-0.874-1.587
		c-0.062-0.168-0.092-0.349-0.112-0.433c-1.469-0.117-2.859-0.228-4.249-0.344c-0.605-0.05-1.173-0.318-1.822-0.173
		c-0.36,0.081-0.676,0.191-0.731,0.51c-0.119,0.666-0.513,0.747-1.085,0.584c0,0.283,0,0.509,0,0.717
		c-1.104,0.348-2.191,0.371-3.292,0.297c-0.722-0.05-1.446-0.104-2.166-0.074c-0.457,0.02-0.881,0.217-1.091,0.706
		c-0.08,0.188-0.199,0.419-0.364,0.5c-0.497,0.242-0.548,0.672-0.438,1.087c0.105,0.405-0.047,0.588-0.33,0.804
		c-0.774,0.596-1.287,1.421-1.8,2.229c-0.443,0.697-0.787,1.458-1.199,2.176c-0.098,0.172-0.285,0.396-0.443,0.408
		c-0.723,0.051-1.071,0.521-1.398,1.069c-0.343,0.578-0.694,1.16-1.289,1.523c-0.676,0.414-1.065,1.037-1.376,1.74
		c-0.226,0.512-0.435,1.051-0.767,1.489c-0.422,0.562-0.97,1.031-1.445,1.556c-0.192,0.211-0.342,0.457-0.538,0.725
		c0.568,0.371,1.062,0.695,1.559,1.014c0.771,0.492,1.562,0.953,2.312,1.476c0.879,0.61,1.711,1.289,2.584,1.908
		c1.404,0.993,2.818,1.977,4.244,2.942c0.771,0.523,1.572,1.002,2.365,1.496c0.358,0.226,0.752,0.404,1.087,0.66
		c0.268,0.205,0.438,0.541,0.711,0.734c0.61,0.432,1.248,0.834,1.901,1.198c0.347,0.191,0.767,0.246,1.124,0.422
		c0.721,0.353,1.407,0.771,2.133,1.111c1.358,0.644,2.734,1.25,4.104,1.869c0.262,0.119,0.533,0.217,0.887,0.359
		c0.251-0.504,0.562-0.957,0.707-1.459c0.263-0.898,0.449-1.822,0.617-2.746C145.71,129.34,145.643,128.948,145.637,128.569z"/>
	<path d="M50.148,86.352c0.405-0.646,0.795-0.774,1.559-0.568C51.455,86.228,50.801,86.484,50.148,86.352z"/>
	<path d="M53.446,85.217c-0.472,0.184-0.942,0.367-1.511,0.588c0.123-0.5,0.331-0.72,0.735-0.692
		c0.263,0.019,0.521,0.071,0.786,0.111C53.46,85.227,53.446,85.217,53.446,85.217z"/>
</g>
</svg>
